project2/simulation/qsim/project2.msim.vcd
$comment
	File created using the following command:
		vcd file project2.msim.vcd -direction
$end
$date
	Sun May 27 16:02:36 2018
$end
$version
	ModelSim Version 10.1d
$end
$timescale
	1ps
$end
$scope module mul2_vlg_vec_tst $end
$var reg 8 ! in [7:0] $end
$var wire 1 " out [7] $end
$var wire 1 # out [6] $end
$var wire 1 $ out [5] $end
$var wire 1 % out [4] $end
$var wire 1 & out [3] $end
$var wire 1 ' out [2] $end
$var wire 1 ( out [1] $end
$var wire 1 ) out [0] $end
$var wire 1 * sampler $end
$scope module i1 $end
$var wire 1 + gnd $end
$var wire 1 , vcc $end
$var wire 1 - unknown $end
$var tri1 1 . devclrn $end
$var tri1 1 / devpor $end
$var tri1 1 0 devoe $end
$var wire 1 1 WideAnd0~0_combout $end
$var wire 1 2 WideAnd0~1_combout $end
$var wire 1 3 WideAnd0~combout $end
$var wire 1 4 out~0_combout $end
$var wire 1 5 out~1_combout $end
$var wire 1 6 out~2_combout $end
$var wire 1 7 out~3_combout $end
$var wire 1 8 out~4_combout $end
$var wire 1 9 out~5_combout $end
$var wire 1 : in~combout [7] $end
$var wire 1 ; in~combout [6] $end
$var wire 1 < in~combout [5] $end
$var wire 1 = in~combout [4] $end
$var wire 1 > in~combout [3] $end
$var wire 1 ? in~combout [2] $end
$var wire 1 @ in~combout [1] $end
$var wire 1 A in~combout [0] $end
$upscope $end
$upscope $end
$enddefinitions $end
#0
$dumpvars
b0 !
0)
0(
0'
0&
0%
0$
0#
0"
x*
0+
1,
x-
1.
1/
10
01
02
03
04
05
06
07
08
09
0A
0@
0?
0>
0=
0<
0;
0:
$end
#10000
b10000000 !
1:
0*
#20000
b11000000 !
b1000000 !
1;
0:
1*
#30000
b11000000 !
1:
0*
#40000
b11100000 !
b10100000 !
b100000 !
1<
0;
0:
1*
1#
#50000
b10100000 !
1:
0*
#60000
b11100000 !
b1100000 !
1;
0:
1*
#70000
b11100000 !
1:
0*
#80000
b11110000 !
b11010000 !
b10010000 !
b10000 !
1=
0<
0;
0:
1*
1$
0#
#90000
b10010000 !
1:
0*
#100000
b11010000 !
b1010000 !
1;
0:
1*
#110000
b11010000 !
1:
0*
#120000
b11110000 !
b10110000 !
b110000 !
1<
0;
0:
1*
1#
#130000
b10110000 !
1:
0*
#140000
b11110000 !
b1110000 !
1;
0:
1*
#150000
b11110000 !
1:
0*
12
#160000
b11111000 !
b11101000 !
b11001000 !
b10001000 !
b1000 !
1>
0=
0<
0;
0:
1*
19
16
14
02
0$
0#
17
15
1%
1'
1(
#170000
b10001000 !
1:
0*
#180000
b11001000 !
b1001000 !
1;
0:
1*
#190000
b11001000 !
1:
0*
#200000
b11101000 !
b10101000 !
b101000 !
1<
0;
0:
1*
1#
#210000
b10101000 !
1:
0*
#220000
b11101000 !
b1101000 !
1;
0:
1*
#230000
b11101000 !
1:
0*
#240000
b11111000 !
b11011000 !
b10011000 !
b11000 !
1=
0<
0;
0:
1*
1$
0#
#250000
b10011000 !
1:
0*
#260000
b11011000 !
b1011000 !
1;
0:
1*
#270000
b11011000 !
1:
0*
#280000
b11111000 !
b10111000 !
b111000 !
1<
0;
0:
1*
1#
#290000
b10111000 !
1:
0*
#300000
b11111000 !
b1111000 !
1;
0:
1*
#310000
b11111000 !
1:
0*
12
#320000
b11111100 !
b11110100 !
b11100100 !
b11000100 !
b10000100 !
b100 !
1?
0>
0=
0<
0;
0:
1*
09
18
06
04
02
0$
0#
07
05
0%
1&
0'
0(
#330000
b10000100 !
1:
0*
#340000
b11000100 !
b1000100 !
1;
0:
1*
#350000
b11000100 !
1:
0*
#360000
b11100100 !
b10100100 !
b100100 !
1<
0;
0:
1*
1#
#370000
b10100100 !
1:
0*
#380000
b11100100 !
b1100100 !
1;
0:
1*
#390000
b11100100 !
1:
0*
#400000
b11110100 !
b11010100 !
b10010100 !
b10100 !
1=
0<
0;
0:
1*
1$
0#
#410000
b10010100 !
1:
0*
#420000
b11010100 !
b1010100 !
1;
0:
1*
#430000
b11010100 !
1:
0*
#440000
b11110100 !
b10110100 !
b110100 !
1<
0;
0:
1*
1#
#450000
b10110100 !
1:
0*
#460000
b11110100 !
b1110100 !
1;
0:
1*
#470000
b11110100 !
1:
0*
12
#480000
b11111100 !
b11101100 !
b11001100 !
b10001100 !
b1100 !
1>
0=
0<
0;
0:
1*
19
02
0$
0#
1%
#490000
b10001100 !
1:
0*
#500000
b11001100 !
b1001100 !
1;
0:
1*
#510000
b11001100 !
1:
0*
#520000
b11101100 !
b10101100 !
b101100 !
1<
0;
0:
1*
1#
#530000
b10101100 !
1:
0*
#540000
b11101100 !
b1101100 !
1;
0:
1*
#550000
b11101100 !
1:
0*
#560000
b11111100 !
b11011100 !
b10011100 !
b11100 !
1=
0<
0;
0:
1*
1$
0#
#570000
b10011100 !
1:
0*
#580000
b11011100 !
b1011100 !
1;
0:
1*
#590000
b11011100 !
1:
0*
#600000
b11111100 !
b10111100 !
b111100 !
1<
0;
0:
1*
1#
#610000
b10111100 !
1:
0*
#620000
b11111100 !
b1111100 !
1;
0:
1*
#630000
b11111100 !
1:
0*
12
#640000
b11111110 !
b11111010 !
b11110010 !
b11100010 !
b11000010 !
b10000010 !
b10 !
1@
0?
0>
0=
0<
0;
0:
1*
09
08
16
02
0$
0#
17
0%
0&
1'
#650000
b10000010 !
1:
0*
#660000
b11000010 !
b1000010 !
1;
0:
1*
#670000
b11000010 !
1:
0*
#680000
b11100010 !
b10100010 !
b100010 !
1<
0;
0:
1*
1#
#690000
b10100010 !
1:
0*
#700000
b11100010 !
b1100010 !
1;
0:
1*
#710000
b11100010 !
1:
0*
#720000
b11110010 !
b11010010 !
b10010010 !
b10010 !
1=
0<
0;
0:
1*
1$
0#
#730000
b10010010 !
1:
0*
#740000
b11010010 !
b1010010 !
1;
0:
1*
#750000
b11010010 !
1:
0*
#760000
b11110010 !
b10110010 !
b110010 !
1<
0;
0:
1*
1#
#770000
b10110010 !
1:
0*
#780000
b11110010 !
b1110010 !
1;
0:
1*
#790000
b11110010 !
1:
0*
12
#800000
b11111010 !
b11101010 !
b11001010 !
b10001010 !
b1010 !
1>
0=
0<
0;
0:
1*
19
06
02
0$
0#
07
1%
0'
#810000
b10001010 !
1:
0*
#820000
b11001010 !
b1001010 !
1;
0:
1*
#830000
b11001010 !
1:
0*
#840000
b11101010 !
b10101010 !
b101010 !
1<
0;
0:
1*
1#
#850000
b10101010 !
1:
0*
#860000
b11101010 !
b1101010 !
1;
0:
1*
#870000
b11101010 !
1:
0*
#880000
b11111010 !
b11011010 !
b10011010 !
b11010 !
1=
0<
0;
0:
1*
1$
0#
#890000
b10011010 !
1:
0*
#900000
b11011010 !
b1011010 !
1;
0:
1*
#910000
b11011010 !
1:
0*
#920000
b11111010 !
b10111010 !
b111010 !
1<
0;
0:
1*
1#
#930000
b10111010 !
1:
0*
#940000
b11111010 !
b1111010 !
1;
0:
1*
#950000
b11111010 !
1:
0*
12
#960000
b11111110 !
b11110110 !
b11100110 !
b11000110 !
b10000110 !
b110 !
1?
0>
0=
0<
0;
0:
1*
14
02
0$
0#
15
1(
#970000
b10000110 !
1:
0*
#980000
b11000110 !
b1000110 !
1;
0:
1*
#990000
b11000110 !
1:
0*
